real array of: 	5	2	3
a(0, 0, 1) =  1
a(2, 1, 1) =  26
a(5,2,3) =  71
Automatic array a$ should have a default size of 10, 10, 10
a$(5,2,3) =  a fish bat
a$(10,10,10) =  a bat fink
woof, woof.
e$(1, 5) 15
